           <svg
              className='icon me-3'
              width='25'
              height='25'
              viewBox='0 0 25 25'
              fill='none'
              xmlns='http://www.w3.org/2000/svg'
            >
              <path
                d='M6.90332 2.41406L3.90332 6.41406V20.4141C3.90332 20.9445 4.11403 21.4532 4.48911 21.8283C4.86418 22.2033 5.37289 22.4141 5.90332 22.4141H19.9033C20.4338 22.4141 20.9425 22.2033 21.3175 21.8283C21.6926 21.4532 21.9033 20.9445 21.9033 20.4141V6.41406L18.9033 2.41406H6.90332Z'
                stroke='#7E8CAC'
                stroke-width='2'
                stroke-linecap='round'
                stroke-linejoin='round'
              />
              <path
                d='M16.9033 10.4141C16.9033 11.4749 16.4819 12.4923 15.7317 13.2425C14.9816 13.9926 13.9642 14.4141 12.9033 14.4141C11.8425 14.4141 10.825 13.9926 10.0749 13.2425C9.32475 12.4923 8.90332 11.4749 8.90332 10.4141'
                stroke='#7E8CAC'
                stroke-width='2'
                stroke-linecap='round'
                stroke-linejoin='round'
              />
              <path
                d='M3.90332 6.41406H21.9033'
                stroke='#7E8CAC'
                stroke-width='2'
                stroke-linecap='round'
                stroke-linejoin='round'
              />
            </svg>